{
  "EncryptedSeed": "6PYQc74ooGaJAVbtcoNiY3m5SuwTtv41Hq9VariUcpwP1ZPewjimnc2F9p",
  "ChainCode": "HaXG7tw/4juzSRS3fi1kw/EKyvANLlhJktiCi1G4CC8=",
  "Network": "TestNet",
  "CreationTime": "2018-07-22"
}